…
# Check the result
print(token_wide_df)
```

```
## # A tibble: 1,049 × 5,863
##    minute_return trump cabinet meeting feature press question answer biden   www
##            <dbl> <dbl>   <dbl>   <dbl>   <dbl> <dbl>    <dbl>  <dbl> <dbl> <dbl>
##  1       -0.740      1       1       1       1     1        1      1     1     1
##  2        0.440      1      NA      NA      NA    NA       NA     NA    NA    NA
##  3        0.350      1      NA      NA      NA    NA       NA     NA    NA    NA
##  4        0.560      1      NA      NA      NA    NA       NA     NA    NA    NA
##  5       -0.390      1      NA      NA      NA    NA       NA     NA    NA    NA
##  6       -0.790     NA      NA      NA      NA    NA       NA     NA    NA    NA
##  7        0.0200     1      NA      NA      NA    NA       NA     NA    NA    NA
##  8        0.525     NA      NA      NA      NA    NA       NA     NA    NA    NA
##  9        0.0900     1      NA      NA      NA    NA       NA     NA    NA     1
## 10       -1.83      NA      NA      NA      NA    NA       NA     NA    NA    NA
## # ℹ 1,039 more rows
## # ℹ 5,853 more variables: washingtontimes <dbl>, president <dbl>, time <dbl>,
## #   set <dbl>, office <dbl>, datum <dbl>, compile <dbl>, washington <dbl>,
## #   save <dbl>, social <dbl>, security <dbl>, stop <dbl>, fraud <dbl>,
## #   don <dbl>, medium <dbl>, lie <dbl>, amac <dbl>, amacforamerica <dbl>,
## #   reform <dbl>, improve <dbl>, service <dbl>, eliminate <dbl>, ensure <dbl>,
## #   senior <dbl>, benefit <dbl>, deserve <dbl>, waste <dbl>, abuse <dbl>, …
```
…
